…
## Code for Home Discharge

``` r
cp_spine_tidy %>% 
  select(home_discharge)
```

    ## # A tibble: 830 x 1
    ##    home_discharge
    ##    <chr>         
    ##  1 TRUE          
    ##  2 TRUE          
    ##  3 FALSE         
    ##  4 TRUE          
    ##  5 TRUE          
    ##  6 TRUE          
    ##  7 TRUE          
    ##  8 TRUE          
    ##  9 TRUE          
    ## 10 TRUE          
    ## # … with 820 more rows
…
